Exercise 5: Factor and figure management
…
First, lets look at singer_locations without modifications. The dataframe contains 10,100 entries, which apparently is too much for datatable() to handle as a client-side operation (!), so I wont be presenting it as a tibble.

singer_all <- singer_locations %>% 
    mutate(year = as_factor(year))

singer_all$year %>% 
    str()

##  Factor w/ 70 levels "0","1922","1926",..: 67 64 58 55 28 66 63 67 26 66 ...

The above output shows us that year has now been converted to a factor class object, with 70 levels (different values) of year present in the dataframe. We can also see some instances of integers that these levels are stored as.

singer_all

## # A tibble: 10,100 x 14
##    track_id title song_id release artist_id artist_name year  duration
##    <chr>    <chr> <chr>   <chr>   <chr>     <chr>       <fct>    <dbl>
##  1 TRWICRA~ The ~ SOSURT~ Even I~ ARACDPV1~ Motion Cit~ 2007      170.
##  2 TRXJANY~ Lone~ SODESQ~ The Du~ ARYBUAO1~ Gene Chand~ 2004      107.
##  3 TRIKPCA~ Here~ SOQUYQ~ Improm~ AR4111G1~ Paul Horn   1998      528.
##  4 TRYEATD~ Rego~ SOEZGR~ Still ~ ARQDZP31~ Ronnie Ear~ 1995      695.
##  5 TRBYYXH~ Games SOPIOC~ Afro-H~ AR75GYU1~ Dorothy As~ 1968      237.
##  6 TRKFFKR~ More~ SOHQSP~ Six Ya~ ARCENE01~ Barleyjuice 2006      193.
##  7 TRSSNNI~ out ~ SOIHOM~ Eradic~ AR88PFB1~ Vertigo An~ 2003      240.
##  8 TRXSSXI~ Endl~ SODTXQ~ Sounds~ ARKQW4V1~ Wir Sind H~ 2007      223.
##  9 TRDKANB~ I Am~ SOCZZE~ Live F~ ARIWB161~ Simon & Ga~ 1966      178.
## 10 TRJQSXM~ A pe~ SOFJTI~ Save M~ ARP3U2W1~ Rabia Sorda 2006      260.
## # ... with 10,090 more rows, and 6 more variables:
## #   artist_hotttnesss <dbl>, artist_familiarity <dbl>, latitude <dbl>,
## #   longitude <dbl>, name <chr>, city <chr>

There are 10,100 rows of data in this dataframe.

Now lets filter out the entries with 0 under Year.

singer_filter <- singer_all %>% 
    filter(year!=0)

singer_filter

## # A tibble: 10,000 x 14
##    track_id title song_id release artist_id artist_name year  duration
##    <chr>    <chr> <chr>   <chr>   <chr>     <chr>       <fct>    <dbl>
##  1 TRWICRA~ The ~ SOSURT~ Even I~ ARACDPV1~ Motion Cit~ 2007      170.
##  2 TRXJANY~ Lone~ SODESQ~ The Du~ ARYBUAO1~ Gene Chand~ 2004      107.
##  3 TRIKPCA~ Here~ SOQUYQ~ Improm~ AR4111G1~ Paul Horn   1998      528.
##  4 TRYEATD~ Rego~ SOEZGR~ Still ~ ARQDZP31~ Ronnie Ear~ 1995      695.
##  5 TRBYYXH~ Games SOPIOC~ Afro-H~ AR75GYU1~ Dorothy As~ 1968      237.
##  6 TRKFFKR~ More~ SOHQSP~ Six Ya~ ARCENE01~ Barleyjuice 2006      193.
##  7 TRSSNNI~ out ~ SOIHOM~ Eradic~ AR88PFB1~ Vertigo An~ 2003      240.
##  8 TRXSSXI~ Endl~ SODTXQ~ Sounds~ ARKQW4V1~ Wir Sind H~ 2007      223.
##  9 TRDKANB~ I Am~ SOCZZE~ Live F~ ARIWB161~ Simon & Ga~ 1966      178.
## 10 TRJQSXM~ A pe~ SOFJTI~ Save M~ ARP3U2W1~ Rabia Sorda 2006      260.
## # ... with 9,990 more rows, and 6 more variables: artist_hotttnesss <dbl>,
## #   artist_familiarity <dbl>, latitude <dbl>, longitude <dbl>, name <chr>,
## #   city <chr>

singer_filter$year %>% 
    str()

##  Factor w/ 70 levels "0","1922","1926",..: 67 64 58 55 28 66 63 67 26 66 ...

Without using droplevels(), there are still 70 levels present, despite all instances of year = 0 having been filtered out. However, the number of entries in the dataframe has decreased to 10,000.

singer_drop <- singer_filter %>% 
    droplevels()

singer_drop

## # A tibble: 10,000 x 14
##    track_id title song_id release artist_id artist_name year  duration
##    <chr>    <chr> <chr>   <chr>   <chr>     <chr>       <fct>    <dbl>
##  1 TRWICRA~ The ~ SOSURT~ Even I~ ARACDPV1~ Motion Cit~ 2007      170.
##  2 TRXJANY~ Lone~ SODESQ~ The Du~ ARYBUAO1~ Gene Chand~ 2004      107.
##  3 TRIKPCA~ Here~ SOQUYQ~ Improm~ AR4111G1~ Paul Horn   1998      528.
##  4 TRYEATD~ Rego~ SOEZGR~ Still ~ ARQDZP31~ Ronnie Ear~ 1995      695.
##  5 TRBYYXH~ Games SOPIOC~ Afro-H~ AR75GYU1~ Dorothy As~ 1968      237.
##  6 TRKFFKR~ More~ SOHQSP~ Six Ya~ ARCENE01~ Barleyjuice 2006      193.
##  7 TRSSNNI~ out ~ SOIHOM~ Eradic~ AR88PFB1~ Vertigo An~ 2003      240.
##  8 TRXSSXI~ Endl~ SODTXQ~ Sounds~ ARKQW4V1~ Wir Sind H~ 2007      223.
##  9 TRDKANB~ I Am~ SOCZZE~ Live F~ ARIWB161~ Simon & Ga~ 1966      178.
## 10 TRJQSXM~ A pe~ SOFJTI~ Save M~ ARP3U2W1~ Rabia Sorda 2006      260.
## # ... with 9,990 more rows, and 6 more variables: artist_hotttnesss <dbl>,
## #   artist_familiarity <dbl>, latitude <dbl>, longitude <dbl>, name <chr>,
## #   city <chr>
…
To simplify our plot, lets categorize years into decades.

(singer_fct <- singer_locations %>% 
    filter(year != 0) %>% 
    mutate(decade = cut(year, breaks = c(1919, 1929, 1939, 
                                         1949, 1959, 1969, 
                                         1979, 1989, 1999, 
                                         2009, 2019),
                               labels = c("1920s", "1930s", 
                                          "1940s", "1950s", 
                                          "1960s", "1970s", 
                                          "1980s", "1990s", 
                                          "2000s", "2010s"))))

## # A tibble: 10,000 x 15
##    track_id title song_id release artist_id artist_name  year duration
##    <chr>    <chr> <chr>   <chr>   <chr>     <chr>       <int>    <dbl>
##  1 TRWICRA~ The ~ SOSURT~ Even I~ ARACDPV1~ Motion Cit~  2007     170.
##  2 TRXJANY~ Lone~ SODESQ~ The Du~ ARYBUAO1~ Gene Chand~  2004     107.
##  3 TRIKPCA~ Here~ SOQUYQ~ Improm~ AR4111G1~ Paul Horn    1998     528.
##  4 TRYEATD~ Rego~ SOEZGR~ Still ~ ARQDZP31~ Ronnie Ear~  1995     695.
##  5 TRBYYXH~ Games SOPIOC~ Afro-H~ AR75GYU1~ Dorothy As~  1968     237.
##  6 TRKFFKR~ More~ SOHQSP~ Six Ya~ ARCENE01~ Barleyjuice  2006     193.
##  7 TRSSNNI~ out ~ SOIHOM~ Eradic~ AR88PFB1~ Vertigo An~  2003     240.
##  8 TRXSSXI~ Endl~ SODTXQ~ Sounds~ ARKQW4V1~ Wir Sind H~  2007     223.
##  9 TRDKANB~ I Am~ SOCZZE~ Live F~ ARIWB161~ Simon & Ga~  1966     178.
## 10 TRJQSXM~ A pe~ SOFJTI~ Save M~ ARP3U2W1~ Rabia Sorda  2006     260.
## # ... with 9,990 more rows, and 7 more variables: artist_hotttnesss <dbl>,
## #   artist_familiarity <dbl>, latitude <dbl>, longitude <dbl>, name <chr>,
## #   city <chr>, decade <fct>
…
library(here)

## here() starts at C:/Users/Tracy/Documents/Uni/UBC 2019-2020/STAT 545A/stat545-hw-t-wang-ecohydro/HW05

# set_here() was previously called to create a .here file in the HW05 folder.

dr_here()

## here() starts at C:/Users/Tracy/Documents/Uni/UBC 2019-2020/STAT 545A/stat545-hw-t-wang-ecohydro/HW05, because it contains a file `.here`

(singer_out <- singer_fct %>% 
    filter(decade == "1990s"))

## # A tibble: 2,487 x 15
##    track_id title song_id release artist_id artist_name  year duration
##    <chr>    <chr> <chr>   <chr>   <chr>     <chr>       <int>    <dbl>
##  1 TRIKPCA~ Here~ SOQUYQ~ Improm~ AR4111G1~ Paul Horn    1998    528. 
##  2 TRYEATD~ Rego~ SOEZGR~ Still ~ ARQDZP31~ Ronnie Ear~  1995    695. 
##  3 TRBUASZ~ June~ SOBXXM~ The Ta~ AROGN2E1~ Deep Puddl~  1999    206. 
##  4 TRIPLUO~ Work~ SOESGM~ Amor_ ~ AR2G8XO1~ Nacho Cano   1999    184. 
##  5 TRBJHDW~ SOS   SOBFXY~ Moore ~ ARUQNXV1~ Ray Brown ~  1991    285. 
##  6 TRDXPYA~ Bohe~ SOWGHQ~ Boheme  AR3Q86S1~ Deep Forest  1995    315. 
##  7 TRCMPSV~ Do Y~ SOTQCC~ BY DES~ ARNO8TU1~ Billy Cobh~  1999    593. 
##  8 TRBCFEX~ Grou~ SOXSKG~ The Un~ AR097D41~ The Undeci~  1999     92.7
##  9 TRCFVSR~ Na L~ SOJSPQ~ 3 Orig~ ARPXDY61~ Clannad      1993    320. 
## 10 TRERJLF~ Ulko~ SOUCYX~ Kaikki~ ARYOKIG1~ Tehosekoit~  1994    284. 
## # ... with 2,477 more rows, and 7 more variables: artist_hotttnesss <dbl>,
## #   artist_familiarity <dbl>, latitude <dbl>, longitude <dbl>, name <chr>,
## #   city <chr>, decade <fct>
…
##   release = col_character(),
##   artist_id = col_character(),
##   artist_name = col_character(),
##   year = col_double(),
##   duration = col_double(),
##   artist_hotttnesss = col_double(),
##   artist_familiarity = col_double(),
##   latitude = col_double(),
##   longitude = col_double(),
##   name = col_character(),
##   city = col_character(),
##   decade = col_character()
## )

## # A tibble: 2,487 x 15
##    track_id title song_id release artist_id artist_name  year duration
##    <chr>    <chr> <chr>   <chr>   <chr>     <chr>       <dbl>    <dbl>
##  1 TRIKPCA~ Here~ SOQUYQ~ Improm~ AR4111G1~ Paul Horn    1998    528. 
##  2 TRYEATD~ Rego~ SOEZGR~ Still ~ ARQDZP31~ Ronnie Ear~  1995    695. 
##  3 TRBUASZ~ June~ SOBXXM~ The Ta~ AROGN2E1~ Deep Puddl~  1999    206. 
##  4 TRIPLUO~ Work~ SOESGM~ Amor_ ~ AR2G8XO1~ Nacho Cano   1999    184. 
##  5 TRBJHDW~ SOS   SOBFXY~ Moore ~ ARUQNXV1~ Ray Brown ~  1991    285. 
##  6 TRDXPYA~ Bohe~ SOWGHQ~ Boheme  AR3Q86S1~ Deep Forest  1995    315. 
##  7 TRCMPSV~ Do Y~ SOTQCC~ BY DES~ ARNO8TU1~ Billy Cobh~  1999    593. 
##  8 TRBCFEX~ Grou~ SOXSKG~ The Un~ AR097D41~ The Undeci~  1999     92.7
##  9 TRCFVSR~ Na L~ SOJSPQ~ 3 Orig~ ARPXDY61~ Clannad      1993    320. 
## 10 TRERJLF~ Ulko~ SOUCYX~ Kaikki~ ARYOKIG1~ Tehosekoit~  1994    284. 
## # ... with 2,477 more rows, and 7 more variables: artist_hotttnesss <dbl>,
## #   artist_familiarity <dbl>, latitude <dbl>, longitude <dbl>, name <chr>,
## #   city <chr>, decade <chr>
…
dput()/dget()

I will try the same exercise with dput()/dget().

dput(singer_out, file = here::here("singer_fct_d.csv"))

The file has been successfully written, but the format of the table is different than write_csv()s output, which I confirmed by opening the .csv files using Excel. Trying to use read_csv() on the dput() output caused a myriad of parsing errors.

(singer_get <- dget(here::here("singer_fct_d.csv"), keep.source = TRUE))

## # A tibble: 2,487 x 15
##    track_id title song_id release artist_id artist_name  year duration
##    <chr>    <chr> <chr>   <chr>   <chr>     <chr>       <int>    <dbl>
##  1 TRIKPCA~ Here~ SOQUYQ~ Improm~ AR4111G1~ Paul Horn    1998    528. 
##  2 TRYEATD~ Rego~ SOEZGR~ Still ~ ARQDZP31~ Ronnie Ear~  1995    695. 
##  3 TRBUASZ~ June~ SOBXXM~ The Ta~ AROGN2E1~ Deep Puddl~  1999    206. 
##  4 TRIPLUO~ Work~ SOESGM~ Amor_ ~ AR2G8XO1~ Nacho Cano   1999    184. 
##  5 TRBJHDW~ SOS   SOBFXY~ Moore ~ ARUQNXV1~ Ray Brown ~  1991    285. 
##  6 TRDXPYA~ Bohe~ SOWGHQ~ Boheme  AR3Q86S1~ Deep Forest  1995    315. 
##  7 TRCMPSV~ Do Y~ SOTQCC~ BY DES~ ARNO8TU1~ Billy Cobh~  1999    593. 
##  8 TRBCFEX~ Grou~ SOXSKG~ The Un~ AR097D41~ The Undeci~  1999     92.7
##  9 TRCFVSR~ Na L~ SOJSPQ~ 3 Orig~ ARPXDY61~ Clannad      1993    320. 
## 10 TRERJLF~ Ulko~ SOUCYX~ Kaikki~ ARYOKIG1~ Tehosekoit~  1994    284. 
## # ... with 2,477 more rows, and 7 more variables: artist_hotttnesss <dbl>,
## #   artist_familiarity <dbl>, latitude <dbl>, longitude <dbl>, name <chr>,
## #   city <chr>, decade <fct>
…
